<?xml version="1.0" encoding="utf-8"?>
<!-- Generator: Adobe Illustrator 18.0.0, SVG Export Plug-In . SVG Version: 6.00 Build 0)  -->
<!DOCTYPE svg PUBLIC "-//W3C//DTD SVG 1.1//EN" "http://www.w3.org/Graphics/SVG/1.1/DTD/svg11.dtd">
<svg version="1.1" id="Layer_1" xmlns="http://www.w3.org/2000/svg" xmlns:xlink="http://www.w3.org/1999/xlink" x="0px" y="0px"
	 viewBox="0 0 353.5 55.4" enable-background="new 0 0 353.5 55.4" xml:space="preserve">
<path d="M79.1,40.7c2,2.5,4.8,3.8,8.2,3.8c3.4,0,6.2-1.3,8.2-3.8c2-2.5,3-6,3-10.4V0h12.2v30.6c0,7.9-2.2,14-6.6,18.3
	c-4.4,4.3-10,6.4-16.8,6.4c-6.8,0-12.5-2.1-16.9-6.4c-4.4-4.3-6.6-10.4-6.6-18.2V0h12.2v30.2C76.1,34.7,77.1,38.1,79.1,40.7z"/>
<path d="M120,0h12.2v54.8H120V0z"/>
<path d="M242.3,0v10.9h-27.3v11.3h24.5v10.4h-24.5V44h28.1v10.8h-40.3V0H242.3z"/>
<path fill="#FCB34C" d="M252.2,53.4c-1.3-1.3-2-3-2-4.9c0-1.9,0.7-3.6,2-4.9c1.3-1.3,3-2,4.9-2c1.9,0,3.6,0.7,4.9,2
	c1.3,1.3,2,3,2,4.9c0,1.9-0.7,3.6-2,4.9c-1.3,1.3-3,2-4.9,2C255.2,55.4,253.6,54.8,252.2,53.4z"/>
<path fill="#FCB34C" d="M271.3,54.8V0h12.2v43.9h23.3v10.9H271.3z"/>
<path fill="#FCB34C" d="M334.6,54.8h-12.2V33.2L303.4,0h13.2l11.8,20.4L340.3,0h13.2l-19,33.1V54.8z"/>
<path d="M27.7,12.5c0.2,0,28.2,0,28.2,0V0c0,0-27.9,0-28.2,0C12.4,0,0,12.4,0,27.7s12.4,27.7,27.7,27.7C43,55.4,55.4,43,55.4,27.7
	v-6.6l-27.8,0V33H42c-2.1,5.8-7.7,10-14.3,10c-8.4,0-15.2-6.8-15.2-15.2C12.5,19.3,19.3,12.5,27.7,12.5z"/>
<path d="M184.9,7.2c5.2,4.8,7.8,11.4,7.8,19.9c0,8.5-2.5,15.2-7.6,20.2c-5.1,5-12.9,7.4-23.3,7.4h-18.7V0.1h19.3
	C172.2,0.1,179.7,2.4,184.9,7.2z M175.9,39.8c3-2.8,4.5-6.9,4.5-12.3c0-5.4-1.5-9.5-4.5-12.4c-3-2.9-7.6-4.3-13.8-4.3h-6.8V44h7.8
	C168.6,44,172.9,42.6,175.9,39.8z"/>
</svg>
