<?xml version="1.0" encoding="utf-8"?>
<!-- Generator: Adobe Illustrator 18.0.0, SVG Export Plug-In . SVG Version: 6.00 Build 0)  -->
<!DOCTYPE svg PUBLIC "-//W3C//DTD SVG 1.1//EN" "http://www.w3.org/Graphics/SVG/1.1/DTD/svg11.dtd">
<svg version="1.1" id="Layer_1" xmlns="http://www.w3.org/2000/svg" xmlns:xlink="http://www.w3.org/1999/xlink" x="0px" y="0px"
	 viewBox="0 0 52 62" enable-background="new 0 0 52 62" xml:space="preserve">
<g>
	<g>
		<path d="M26,26c7.2,0,13-5.8,13-13c0-7.2-5.8-13-13-13c-7.2,0-13,5.8-13,13C13,20.2,18.8,26,26,26z M26,2
			c6.1,0,11,4.9,11,11c0,6.1-4.9,11-11,11s-11-4.9-11-11C15,6.9,19.9,2,26,2z M27,56H2v-9c0-6.9,6.3-15,24-15
			c8.2,0,15.1,1.9,19.4,5.5c0.4,0.4,1.1,0.3,1.4-0.1c0.4-0.4,0.3-1.1-0.1-1.4C42,32.1,34.7,30,26,30C10.2,30,0,36.7,0,47v10
			c0,0.6,0.4,1,1,1h26c0.6,0,1-0.4,1-1C28,56.4,27.6,56,27,56z M51.2,39.8c-0.4-0.4-1-0.4-1.4,0l-20,20c-0.4,0.4-0.4,1,0,1.4
			c0.2,0.2,0.5,0.3,0.7,0.3c0.3,0,0.5-0.1,0.7-0.3l20-20C51.6,40.8,51.6,40.2,51.2,39.8z M47,52c-2.8,0-5,2.2-5,5c0,2.8,2.2,5,5,5
			c2.8,0,5-2.2,5-5C52,54.2,49.8,52,47,52z M47,60c-1.7,0-3-1.3-3-3c0-1.7,1.3-3,3-3s3,1.3,3,3C50,58.7,48.7,60,47,60z M34,49
			c2.8,0,5-2.2,5-5c0-2.8-2.2-5-5-5c-2.8,0-5,2.2-5,5C29,46.8,31.2,49,34,49z M34,41c1.7,0,3,1.3,3,3c0,1.7-1.3,3-3,3
			c-1.7,0-3-1.3-3-3C31,42.3,32.3,41,34,41z"/>
	</g>
</g>
</svg>
