<?xml version="1.0" encoding="utf-8"?>
<!-- Generator: Adobe Illustrator 18.0.0, SVG Export Plug-In . SVG Version: 6.00 Build 0)  -->
<!DOCTYPE svg PUBLIC "-//W3C//DTD SVG 1.1//EN" "http://www.w3.org/Graphics/SVG/1.1/DTD/svg11.dtd">
<svg version="1.1" id="Layer_1" xmlns="http://www.w3.org/2000/svg" xmlns:xlink="http://www.w3.org/1999/xlink" x="0px" y="0px"
	 viewBox="0 0 64 62" enable-background="new 0 0 64 62" xml:space="preserve">
<g>
	<g>
		<path d="M38,31c0-2.8-2.2-5-5-5c-2.8,0-5,2.2-5,5c0,2.8,2.2,5,5,5C35.8,36,38,33.8,38,31z M33,34c-1.7,0-3-1.3-3-3
			c0-1.7,1.3-3,3-3c1.7,0,3,1.3,3,3C36,32.7,34.7,34,33,34z M38.4,48.2C45.9,45.8,51,38.9,51,31c0-9.9-8.1-18-18-18
			c-9.9,0-18,8.1-18,18c0,8,5.3,15.1,13,17.3c0.1,0,0.2,0,0.3,0c0.4,0,0.8-0.3,1-0.7c0.2-0.5-0.2-1.1-0.7-1.2
			C21.8,44.4,17,38.1,17,31c0-8.8,7.2-16,16-16c8.8,0,16,7.2,16,16c0,7-4.5,13.1-11.2,15.3c-0.5,0.2-0.8,0.7-0.7,1.3
			C37.3,48,37.9,48.3,38.4,48.2z M30.2,48c0,1.7,1.3,3,3,3s3-1.3,3-3c0-1.7-1.3-3-3-3S30.2,46.3,30.2,48z M34.2,48c0,0.6-0.4,1-1,1
			c-0.6,0-1-0.4-1-1c0-0.6,0.4-1,1-1C33.8,47,34.2,47.4,34.2,48z M52.4,11.1c1.7,0,3-1.3,3-3c0-1.7-1.3-3-3-3c-1.7,0-3,1.3-3,3
			C49.4,9.7,50.8,11.1,52.4,11.1z M52.4,7.1c0.6,0,1,0.4,1,1c0,0.6-0.4,1-1,1c-0.6,0-1-0.4-1-1C51.4,7.5,51.9,7.1,52.4,7.1z M3.3,27
			c0.1,0,0.1,0,0.2,0c0.5,0,0.9-0.3,1-0.8C6.7,12.2,18.8,2,33,2c5.2,0,10.3,1.4,14.8,4.1c0.5,0.3,1.1,0.1,1.4-0.3
			c0.3-0.5,0.1-1.1-0.3-1.4C44.1,1.5,38.6,0,33,0C17.8,0,4.9,10.9,2.4,25.9C2.3,26.4,2.7,26.9,3.3,27z M56.7,11
			c-0.4-0.4-1-0.5-1.4-0.1c-0.4,0.4-0.5,1-0.1,1.4C59.6,17.5,62,24.2,62,31c0,16-13,29-29,29C18.8,60,6.7,49.8,4.4,35.8
			c-0.1-0.5-0.6-0.9-1.2-0.8c-0.5,0.1-0.9,0.6-0.8,1.2C4.9,51.1,17.8,62,33,62c17.1,0,31-13.9,31-31C64,23.7,61.4,16.6,56.7,11z
			 M6,31c0-1.7-1.3-3-3-3s-3,1.3-3,3c0,1.7,1.3,3,3,3S6,32.7,6,31z M2,31c0-0.6,0.4-1,1-1c0.6,0,1,0.4,1,1c0,0.6-0.4,1-1,1
			C2.4,32,2,31.6,2,31z"/>
	</g>
</g>
</svg>
