<?xml version="1.0" encoding="utf-8"?>
<!-- Generator: Adobe Illustrator 18.0.0, SVG Export Plug-In . SVG Version: 6.00 Build 0)  -->
<!DOCTYPE svg PUBLIC "-//W3C//DTD SVG 1.1//EN" "http://www.w3.org/Graphics/SVG/1.1/DTD/svg11.dtd">
<svg version="1.1" id="Layer_1" xmlns="http://www.w3.org/2000/svg" xmlns:xlink="http://www.w3.org/1999/xlink" x="0px" y="0px"
	 viewBox="0 0 5.1 5.1" enable-background="new 0 0 5.1 5.1" xml:space="preserve">
<g>
	<g>
		<g>
			<polygon fill-rule="evenodd" clip-rule="evenodd" points="5.1,0.2 4.9,0 2.5,2.3 0.2,0 0,0.2 2.3,2.5 0,4.9 
				0.2,5.1 2.5,2.8 4.9,5.1 5.1,4.9 2.8,2.5 			"/>
		</g>
	</g>
</g>
</svg>
