<?xml version="1.0" encoding="utf-8"?>
<!-- Generator: Adobe Illustrator 18.0.0, SVG Export Plug-In . SVG Version: 6.00 Build 0)  -->
<!DOCTYPE svg PUBLIC "-//W3C//DTD SVG 1.1//EN" "http://www.w3.org/Graphics/SVG/1.1/DTD/svg11.dtd">
<svg version="1.1" id="Layer_1" xmlns="http://www.w3.org/2000/svg" xmlns:xlink="http://www.w3.org/1999/xlink" x="0px" y="0px"
	 viewBox="0 0 16 16" enable-background="new 0 0 16 16" xml:space="preserve">
<path fill-rule="evenodd" clip-rule="evenodd" d="M15,16H1c-0.6,0-1-0.4-1-1V1c0-0.6,0.4-1,1-1h14c0.6,0,1,0.4,1,1
	v14C16,15.6,15.6,16,15,16z M8,6C6.9,6,6,6.9,6,8c0,1.1,0.9,2,2,2c1.1,0,2-0.9,2-2C10,6.9,9.1,6,8,6z M14,3c0-0.6-0.4-1-1-1h-1
	c-0.6,0-1,0.4-1,1v1c0,0.6,0.4,1,1,1h1c0.6,0,1-0.4,1-1V3z M14,7h-2.1C11.9,7.3,12,7.7,12,8c0,2.2-1.8,4-4,4c-2.2,0-4-1.8-4-4
	c0-0.3,0.1-0.7,0.1-1H2v7h12V7z"/>
</svg>
