<?xml version="1.0" encoding="utf-8"?>
<!-- Generator: Adobe Illustrator 18.0.0, SVG Export Plug-In . SVG Version: 6.00 Build 0)  -->
<!DOCTYPE svg PUBLIC "-//W3C//DTD SVG 1.1//EN" "http://www.w3.org/Graphics/SVG/1.1/DTD/svg11.dtd">
<svg version="1.1" id="Layer_1" xmlns="http://www.w3.org/2000/svg" xmlns:xlink="http://www.w3.org/1999/xlink" x="0px" y="0px"
	 viewBox="0 0 18 14" enable-background="new 0 0 18 14" xml:space="preserve">
<path d="M16.1,0H1.9C0.9,0,0,0.8,0,1.9v10.3c0,1,0.9,1.9,1.9,1.9h14.2c1,0,1.9-0.8,1.9-1.9V1.9C18,0.8,17.1,0,16.1,0
	z M16,5L9,9L2,5V3l7,4l7-4V5z"/>
</svg>
