<?xml version="1.0" encoding="utf-8"?>
<!-- Generator: Adobe Illustrator 18.0.0, SVG Export Plug-In . SVG Version: 6.00 Build 0)  -->
<!DOCTYPE svg PUBLIC "-//W3C//DTD SVG 1.1//EN" "http://www.w3.org/Graphics/SVG/1.1/DTD/svg11.dtd">
<svg version="1.1" id="Layer_1" xmlns="http://www.w3.org/2000/svg" xmlns:xlink="http://www.w3.org/1999/xlink" x="0px" y="0px"
	 viewBox="0 0 9.6 9.6" enable-background="new 0 0 9.6 9.6" xml:space="preserve">
<g>
	<g>
		<path fill-rule="evenodd" clip-rule="evenodd" d="M4.8,0C2.1,0,0,2.1,0,4.8c0,2.7,2.1,4.8,4.8,4.8s4.8-2.1,4.8-4.8
			C9.6,2.1,7.5,0,4.8,0z M4.8,9C2.5,9,0.6,7.1,0.6,4.8c0-2.3,1.9-4.2,4.2-4.2C7.1,0.6,9,2.5,9,4.8C9,7.1,7.1,9,4.8,9z M4.5,7.2h0.6
			v-3H4.5V7.2z M4.8,2.4C4.5,2.4,4.2,2.7,4.2,3c0,0.3,0.3,0.6,0.6,0.6c0.3,0,0.6-0.3,0.6-0.6C5.4,2.7,5.1,2.4,4.8,2.4z"/>
	</g>
</g>
</svg>
