<?xml version="1.0" encoding="utf-8"?>
<!-- Generator: Adobe Illustrator 18.0.0, SVG Export Plug-In . SVG Version: 6.00 Build 0)  -->
<!DOCTYPE svg PUBLIC "-//W3C//DTD SVG 1.1//EN" "http://www.w3.org/Graphics/SVG/1.1/DTD/svg11.dtd">
<svg version="1.1" id="Layer_1" xmlns="http://www.w3.org/2000/svg" xmlns:xlink="http://www.w3.org/1999/xlink" x="0px" y="0px"
	 viewBox="0 0 62 48" enable-background="new 0 0 62 48" xml:space="preserve">
<path d="M14,40v2c4.4,0,8-3.6,8-8h-2C20,37.3,17.3,40,14,40z M48,40v2c4.4,0,8-3.6,8-8h-2C54,37.3,51.3,40,48,40z
	 M60.9,28.6L60.9,28.6L50.4,5.3c-0.1-0.2-0.2-0.4-0.3-0.6L50,4.6c0-0.1-0.1-0.1-0.1-0.2C48.4,1.7,45.5,0,42.5,0
	C37.8,0,34,3.8,34,8.4c-2-0.6-4-0.5-6,0C28,3.8,24.2,0,19.5,0c-3,0-5.9,1.7-7.4,4.4C12,4.4,12,4.5,12,4.6l-0.1,0.1
	c-0.1,0.2-0.2,0.4-0.3,0.6L1.1,28.6l0,0C0.4,30.3,0,32.1,0,34c0,7.7,6.3,14,14,14c7.7,0,14-6.3,14-14h0V22.5c1.9-0.7,4.1-0.7,6,0V34
	h0c0,7.7,6.3,14,14,14c7.7,0,14-6.3,14-14C62,32.1,61.6,30.3,60.9,28.6z M14,46C7.4,46,2,40.6,2,34c0-6.6,5.4-12,12-12
	c6.6,0,12,5.4,12,12C26,40.6,20.6,46,14,46z M26,26.8c-2.4-4.1-6.9-6.8-12-6.8c-3,0-5.7,0.9-8,2.5l7.4-16.4c0.1-0.1,0.1-0.3,0.2-0.5
	c0,0,0,0,0,0C14.8,3.4,17.1,2,19.5,2C23.1,2,26,4.9,26,8.5V26.8z M34,20.4c-2-0.6-4-0.5-6,0v-9.9c1.9-0.7,4.1-0.7,6,0V20.4z M36,8.5
	C36,4.9,38.9,2,42.5,2c2.4,0,4.7,1.4,5.8,3.6c0.1,0.2,0.2,0.3,0.2,0.5L56,22.5c-2.3-1.6-5-2.5-8-2.5c-5.1,0-9.6,2.7-12,6.8V8.5z
	 M48,46c-6.6,0-12-5.4-12-12c0-6.6,5.4-12,12-12c6.6,0,12,5.4,12,12C60,40.6,54.6,46,48,46z"/>
</svg>
